{
  "type": "service_account",
  "project_id": "lipo-driver-production",
  "private_key_id": "024db4176058399f4c11bce074b9da72642132fa",
  "private_key": "-----BEGIN PRIVATE KEY-----\nMIIEvAIBADANBgkqhkiG9w0BAQEFAASCBKYwggSiAgEAAoIBAQCsUheBF5cu6gvm\nZYl+4KqMaKQ8c6GwR4pkT6B7U4/aDXUxBkhQBV+djUNT9ofbUcfaEW0yKep4Gpqg\nzaoNWTvSW5oYUjM6fcFqMGR3WHPKICw39t8zgZ0Ll2cYyt9OQuo59mONYrAJuAqo\naJgsXlbpYSpmKU4vMspwzWgnqLIPD2Q/H0QlKveotqkONCqwmeE9vTnPePaLbIri\n64H+rFQddKkCzZTNzTR7GmQh074NRgoUHVvratxFBaJuFlUXb55TlOC5ijPQkYQo\nkoeH3/9+UFUt7Mw+oTmJDGKSb3fxRSz8cqTtdCGHD3dyr1YcaTnjXm+UMv4qp1l6\nUGzUFKk3AgMBAAECggEAAIr/rPX0kX7GS9MNFFvD3c5kmhYpL8OB8Z/4mvrf7Kl3\nMZDaAHqL2xS7XhPcSLogvZSpeet85CT9UL1lKEacNCT6vtHffHMx/VIqtt+N+diR\nGxoJiQGDC6rN9duJyZbXYxheJu9lK5qrWe1+cUFY18JpHkpKB0cLMUDMb7eN3BNI\ngM2Wve19ktVqxqzOjMhYYaxvPoP+Z/CzQKP86QYHCWkaa3forUzggOD/9sXuo2+p\nwOk1ghqyQcEF+lY9yL4Nc5897m5y15viKsnRLGzqyRLOOjW1KYNrlo1BNwnPhJH6\n8upNGc2kEDJy9ShEZ9DQei2WaPSFVEvEhS58Se0dQQKBgQDyIy+ixY1jKpD6kjX4\n2A+jrdAnCo8v2SXlk45/KTKmunCruTofFskR1AauaqQkEQta5+DoyMFhLQl7o8ze\nxr5HEP/l2ODoZtUPiBacuyILIKrhxqmYXql0rMMh9HPWuex2Ks6Ym/wG7BVcVqwv\n3bM8/xfNAArdShqKzoSBG7eV9wKBgQC2L6hKksZ9J/+8AcdeXVGhVeNB8KC7AD73\n8rT3qYr1XeIbkk+3KQCo2AqbV9tpLhBMhilVnSPDraR27LogLPGQsK0Wjl6SoADq\nzl9zfKsY8usfFYWvkmJCGxYX9pckxepbNb9NRgMd59Lc/fsDbirG+UVJREgCHI5G\nXbAQZqm2wQKBgDxknksA7wTe5w44TZHlgfEXNyWlspUCmjsqlI4O3n1LXzLVnjOG\n4Vu7AHecTZhZT/W6hBRLjkAIlabq8fxWobrj+I+BiocsrtOS4+Dvo8wWt8hcXoyM\nf8OEG59qc0IJWXsXrjPOJAwt8h332DaQG1aJYYxWCF+tTfV1EQOKwD19AoGAc4TG\nbfqhNuys4DY0hyYew3DlN4NvNwOR6cAQdVUgkjJkU10zhIzQKT9LgnJz4j5eAVe0\nT9/itIme1fWGky5MQZV1Ou8tEkW4LyqKJX0wNBKbeUs5SDlGamooWSt3bM69qfXr\nhgDVqxm6f3vftK4fG6klAK72Bbi7keyH3e5qwEECgYBgQiM8MKk54BNW1FM9GKuB\nGWUoiABGPqrTwAetVgJgNpyM/Z72qkMktr2mIGE/zI12Ce6gkSoVZs4zVaeAiXyP\nV61w2iEnImc2f7jxhqADSYW/3Vo5Wf2RUt+LH9h+CqxpZ5z8gNT2pd+tXjqxmU1g\nviyYOc7WYlGh4mr/A/a45w==\n-----END PRIVATE KEY-----\n",
  "client_email": "firebase-adminsdk-c13fh@lipo-driver-production.iam.gserviceaccount.com",
  "client_id": "101462927123952820703",
  "auth_uri": "https://accounts.google.com/o/oauth2/auth",
  "token_uri": "https://oauth2.googleapis.com/token",
  "auth_provider_x509_cert_url": "https://www.googleapis.com/oauth2/v1/certs",
  "client_x509_cert_url": "https://www.googleapis.com/robot/v1/metadata/x509/firebase-adminsdk-c13fh%40lipo-driver-production.iam.gserviceaccount.com"
}
